T-637980934:VOV Music
T1135599960:Quảng Ninh công bố Quy hoạch Chiến lược Phát triển đến 2020
T195383592:Gửi mail
T1630060755:Lượt xem
T1438535194:Bình chọn
T946693385:Chia sẻ :
T-25522246:Đánh giá:
T-104926868: Ẩn
T815102932: Hiện
T1019591129:Comment:
T1586229338: Nội dung bình luận
T907643602:Bình luận
T1390860812:Ý kiến bạn đọc
T456165028:Các tin liên quan
T-43439105:Các tin đã đăng
T1782008300:Xem thêm các tin đã đăng
T169178461:Tìm kiếm theo chuyên mục - nội dung - ngày tháng
T1940084188:--- Chưa xác định ---
T2140881483:Từ khóa tìm kiếm
T1113987087:Từ ngày
T-1940677623:Đến ngày
T1617085165:Đăng nhập
T1049319380:Email:
T1111077458:Email
T-1703287699:Mật khẩu:
T174613735:Mật khẩu
T864783113:Cổng thông tin điện tử
T-826729432:Trang chủ
T-196464281:Tổng quan
T1942421822:Điều kiện TNXH
T420482817: Di tích lịch sử -Văn hóa 
T403002765:Cơ sở hạ tầng
T272438030:Đơn vị hành chính
T-1355033748:Tổ chức bộ máy
T-277084167:Dịch vụ công
T565307402:Văn bản
T-1726796560:Công báo
T355832426:Văn bản quy phạm pháp luật
T575857151:Văn bản của UBND Tỉnh
T-1054943931:Văn bản của các sở ban ngành tỉnh
T1401912107:Văn bản của các địa phương
T322675499:Văn bản chỉ đạo điều hành
T118913099:Doanh nghiệp
T-1716447459:Du lịch
T468777496:Language
T-831245484:Tin Tiêu Điểm
T-2103837055:Tin sở ban ngành
T-924579282:Tin địa phương
T218353378:Bản đồ Quảng Ninh
T-348620768:Lịch công tác
T237988176:Thông tin tra cứu
T-1940734110:Số liệu thống kê
T840221524:Báo cáo KTXH
T1636423098:Thi đua khen thưởng
T62655817:Thông tin đấu thầu
T90971303:Đề tài khoa học
T211695941:Lịch cắt điện
T371945369:Đăng tin
T-999129872:Dự án hợp tác đầu tư
T1926956536:Danh bạ điện thoại
T-1599858229:Danh bạ chữ ký số và thư điện tử công vụ
T1822442943:Vị trí neo đậu tàu thuyền trú bão
T-10271364:Thời tiết
T1525828363:Quảng Ninh
T473879358:Hà Nội
T-1533561184:Đà Nẵng
T-727958910:Thành phố Hồ Chí Minh
T2038459650:TP HCM
T722084942:Sơ đồ
T1690816658:RSS
T830126741:Diễn đàn
T-1195347273:Cổng thông tin điện tử {0}
